G:\selenium projects\DBS\src\main\java\framework\BrowserOperations.java
G:\selenium projects\DBS\src\main\java\framework\JSONUtil.java
G:\selenium projects\DBS\src\main\java\framework\PropertiesUtil.java
G:\selenium projects\DBS\src\main\java\framework\XMLUtil.java
G:\selenium projects\DBS\src\main\java\framework\ExcelUtil.java
G:\selenium projects\DBS\src\main\java\framework\DBUtil.java
G:\selenium projects\DBS\src\main\java\framework\UserOperations.java
